  ____             _               _
 |  _ \  __  __   | |       __ _  | |__
 | |_) | \ \/ /   | |      / _` | | '_ \
 |  _ <   >  <    | |___  | (_| | | |_) |
 |_| \_\ /_/\_\   |_____|  \__,_| |_.__/

 Author: Rohit Patidar
 Server: Cloud Product Service
